…
affected_countries
```

    ## Simple feature collection with 59 features and 2 fields
    ## geometry type:  POINT
    ## dimension:      XY
    ## bbox:           xmin: -107.9917 ymin: -34.9965 xmax: 139.2394 ymax: 61.06669
    ## geographic CRS: WGS 84
    ## # A tibble: 59 x 3
    ##    name                                 geometry type            
    ##  * <chr>                             <POINT [°]> <chr>           
    ##  1 Philippines               (122.7312 12.75035) Affected Country
    ##  2 Argentina                (-64.96728 -34.9965) Affected Country
    ##  3 India                     (78.66774 22.35111) Affected Country
    ##  4 Mexico                        (-100 22.50005) Affected Country
    ##  5 Switzerland               (8.231974 46.79856) Affected Country
    ##  6 United States Of America (-100.4459 39.78373) Affected Country
    ##  7 Brazil                      (-53.2 -10.33333) Affected Country
    ##  8 Ecuador                  (-79.3667 -1.339767) Affected Country
    ##  9 Indonesia                (117.8903 -2.483383) Affected Country
    ## 10 Latvia                    (24.75376 56.84065) Affected Country
    ## # ... with 49 more rows
…
